<?xml version="1.0" encoding="UTF-8"?>
<svg width="21px" height="30px" viewBox="0 0 21 30" version="1.1" xmlns="http://www.w3.org/2000/svg" xmlns:xlink="http://www.w3.org/1999/xlink">
    <title>worker</title>
    <g id="Design" stroke="none" stroke-width="1" fill="none" fill-rule="evenodd">
        <g id="#9-—-обычный--copy" transform="translate(-563.000000, -372.000000)" fill="#2E75B6" fill-rule="nonzero">
            <g id="popup" transform="translate(465.000000, 102.000000)">
                <g id="Group-10" transform="translate(50.000000, 255.000000)">
                    <g id="Group-6">
                        <g id="worker" transform="translate(48.000000, 15.000000)">
                            <path d="M14.7746484,16.5467578 C13.6843945,17.1144727 12.4736133,17.480918 11.1914062,17.5966992 L11.1914062,20.9414062 L14.7746484,16.5467578 Z" id="Path"></path>
                            <path d="M9.43359375,20.9414062 L9.43359375,17.5966992 C8.15138672,17.480918 6.94060547,17.1144727 5.85035156,16.5467578 L9.43359375,20.9414062 Z" id="Path"></path>
                            <path d="M0.0195703125,24.4140234 L0.0195703125,26.7675586 C0.0195703125,28.5499219 1.46964844,30 3.25195312,30 L9.43359375,30 L9.43359375,23.7230859 L3.62402344,16.5981445 C1.41943359,18.4873242 0.0195703125,21.2899219 0.0195703125,24.4140234 L0.0195703125,24.4140234 Z" id="Path"></path>
                            <path d="M17.0009766,16.5981445 L11.1914062,23.7230273 L11.1914062,30 L17.3730469,30 C19.1553516,30 20.6054297,28.5499219 20.6054297,26.7675586 L20.6054297,24.4140234 C20.6054297,21.2899219 19.2055664,18.4873242 17.0009766,16.5981445 Z" id="Path"></path>
                            <path d="M18.2519531,7.93945312 C18.2519531,3.56162109 14.690332,0 10.3125,0 C5.93466797,0 2.37304688,3.56162109 2.37304688,7.93945312 C2.37304688,12.3172852 5.93466797,15.8789062 10.3125,15.8789062 C14.690332,15.8789062 18.2519531,12.3172852 18.2519531,7.93945312 Z" id="Path"></path>
                        </g>
                    </g>
                </g>
            </g>
        </g>
    </g>
</svg>