<?xml version="1.0" encoding="UTF-8"?>
<svg width="30px" height="30px" viewBox="0 0 30 30" version="1.1" xmlns="http://www.w3.org/2000/svg" xmlns:xlink="http://www.w3.org/1999/xlink">
    <title>037-shipping</title>
    <g id="Design" stroke="none" stroke-width="1" fill="none" fill-rule="evenodd">
        <g id="#9-—-обычный--copy" transform="translate(-557.000000, -462.000000)" fill="#2E75B6" fill-rule="nonzero">
            <g id="popup" transform="translate(465.000000, 102.000000)">
                <g id="Group-13" transform="translate(50.000000, 345.000000)">
                    <g id="Group-6-Copy">
                        <g id="037-shipping" transform="translate(42.000000, 15.000000)">
                            <path d="M27.3046875,24.7262695 L12.3632812,24.7262695 L12.3632812,2.63642578 C12.3632812,2.30337891 12.1753125,1.99957031 11.8774805,1.85021484 L8.36185547,0.0924023438 C7.92667969,-0.122167969 7.40056641,0.0503320313 7.18253906,0.485507813 C6.96539062,0.919804688 7.14134766,1.44767578 7.57564453,1.66482422 L10.6054688,3.17970703 L10.6054688,24.8881641 C9.58464844,25.252207 8.84765625,26.2186523 8.84765625,27.3629883 C8.84765625,28.8169336 10.0304297,29.999707 11.484375,29.999707 C12.9383203,29.999707 14.1210937,28.8169336 14.1210937,27.3629883 C14.1210937,27.0533789 14.0576953,26.7603516 13.9591992,26.4834961 L24.8298633,26.4834961 C24.7313672,26.7603516 24.6679688,27.0533789 24.6679688,27.3629883 C24.6679688,28.8169336 25.8507422,29.999707 27.3046875,29.999707 C28.7586328,29.999707 30,28.8169336 30,27.3629883 C30,25.909043 28.7586328,24.7262695 27.3046875,24.7262695 Z" id="Path"></path>
                            <path d="M0,20.2731445 C0,20.7589453 0.393105469,21.1520508 0.87890625,21.1520508 L6.2109375,21.1520508 C6.69673828,21.1520508 7.08984375,20.7589453 7.08984375,20.2731445 C7.08984375,19.7873438 6.69673828,19.3942383 6.2109375,19.3942383 L0.87890625,19.3942383 C0.393105469,19.3942383 0,19.7872852 0,20.2731445 Z" id="Path"></path>
                            <path d="M7.96875,15.8786133 L4.39453125,15.8786133 C3.90873047,15.8786133 3.515625,16.2717188 3.515625,16.7575195 C3.515625,17.2433203 3.90873047,17.6364258 4.39453125,17.6364258 L7.96875,17.6364258 C8.45455078,17.6364258 8.84765625,17.2433203 8.84765625,16.7575195 C8.84765625,16.2717188 8.45455078,15.8786133 7.96875,15.8786133 Z" id="Path"></path>
                            <path d="M21.6398438,12.5105859 L22.9101562,13.3577344 L22.9101562,8.84730469 L19.3945312,8.84730469 L19.3945312,13.3577344 L20.6648437,12.5105859 C20.9600977,12.3131836 21.3445898,12.3131836 21.6398438,12.5105859 L21.6398438,12.5105859 Z" id="Path"></path>
                            <path d="M16.7578125,8.84730469 C15.3038672,8.84730469 14.1210938,10.0301367 14.1210938,11.484082 L14.1210938,20.3317383 C14.1210938,21.7856836 15.3038672,22.968457 16.7578125,22.968457 L25.546875,22.968457 C27.0008203,22.968457 28.1835938,21.7856836 28.1835938,20.3317383 L28.1835938,11.484082 C28.1835938,10.0301367 27.0008203,8.84730469 25.546875,8.84730469 L24.6679688,8.84730469 L24.6679688,14.999707 C24.6679688,15.3241406 24.4894336,15.6219727 24.2036133,15.7747852 C23.9217773,15.925957 23.5740234,15.9126563 23.3015039,15.7310156 L21.1523438,14.298457 L19.003125,15.730957 C18.7327734,15.9103711 18.3851367,15.9266602 18.1010156,15.7747266 C17.8151953,15.6219727 17.6366602,15.3241406 17.6366602,14.9996484 L17.6366602,8.84730469 L16.7578125,8.84730469 L16.7578125,8.84730469 Z" id="Path"></path>
                        </g>
                    </g>
                </g>
            </g>
        </g>
    </g>
</svg>